{
	"success": true,
	"code": 200,
	"msg": "成功",
	"data": {
		"content": [
			{
				"id": 160918311,
				"source": {
					"id": 8,
					"activityName": "ACT[net.mandaria.tippytipper.activities.Total]796",
					"imageUrl": "https://share.weiyun.com/5EOwtVs",
					"label": "ACT[net.mandaria.tippytipper.activities.Total]796"
				},
				"target": {
					"id": 8,
					"activityName": "ACT[net.mandaria.tippytipper.activities.Total]796",
					"imageUrl": "https://share.weiyun.com/5EOwtVs",
					"label": "ACT[net.mandaria.tippytipper.activities.Total]796"
				},
				"sourceImgUrl": "https://share.weiyun.com/5EOwtVs",
				"targetImgUrl": "https://share.weiyun.com/5EOwtVs",
				"appKey": "tippytipper",
				"hasTestedCount": 4,
				"needTestedCount": 5,
				"finishedTime": null,
				"eventType": null,
				"eventHandlers": "",
				"value": " ACT[net.mandaria.tippytipper.activities.Total]796 ====> ACT[net.mandaria.tippytipper.activities.Total]796 .覆盖率 4/5"
			},
			{
				"id": 274020961,
				"source": {
					"id": 8,
					"activityName": "ACT[net.mandaria.tippytipper.activities.Total]796",
					"imageUrl": "https://share.weiyun.com/5EOwtVs",
					"label": "ACT[net.mandaria.tippytipper.activities.Total]796"
				},
				"target": {
					"id": 8,
					"activityName": "ACT[net.mandaria.tippytipper.activities.Total]796",
					"imageUrl": "https://share.weiyun.com/5EOwtVs",
					"label": "ACT[net.mandaria.tippytipper.activities.Total]796"
				},
				"sourceImgUrl": "https://share.weiyun.com/5EOwtVs",
				"targetImgUrl": "https://share.weiyun.com/5EOwtVs",
				"appKey": "tippytipper",
				"hasTestedCount": 4,
				"needTestedCount": 5,
				"finishedTime": null,
				"eventType": null,
				"eventHandlers": "",
				"value": " ACT[net.mandaria.tippytipper.activities.Total]796 ====> ACT[net.mandaria.tippytipper.activities.Total]796 .覆盖率 4/5"
			},
			{
				"id": 377207092,
				"source": {
					"id": 1,
					"activityName": "OptionsMenu[net.mandaria.tippytipper.activities.Total]790",
					"imageUrl": "https://share.weiyun.com/5EOwtVs",
					"label": "OptionsMenu[net.mandaria.tippytipper.activities.Total]790"
				},
				"target": {
					"id": 8,
					"activityName": "ACT[net.mandaria.tippytipper.activities.Total]796",
					"imageUrl": "https://share.weiyun.com/5EOwtVs",
					"label": "ACT[net.mandaria.tippytipper.activities.Total]796"
				},
				"sourceImgUrl": "https://share.weiyun.com/5EOwtVs",
				"targetImgUrl": "https://share.weiyun.com/5EOwtVs",
				"appKey": "tippytipper",
				"hasTestedCount": 4,
				"needTestedCount": 5,
				"finishedTime": null,
				"eventType": null,
				"eventHandlers": "",
				"value": " OptionsMenu[net.mandaria.tippytipper.activities.Total]790 ====> ACT[net.mandaria.tippytipper.activities.Total]796 .覆盖率 4/5"
			},
			{
				"id": 412494235,
				"source": {
					"id": 7,
					"activityName": "ACT[net.mandaria.tippytipper.activities.Settings]757",
					"imageUrl": "https://share.weiyun.com/5ONKftH",
					"label": "ACT[net.mandaria.tippytipper.activities.Settings]757"
				},
				"target": {
					"id": 7,
					"activityName": "ACT[net.mandaria.tippytipper.activities.Settings]757",
					"imageUrl": "https://share.weiyun.com/5ONKftH",
					"label": "ACT[net.mandaria.tippytipper.activities.Settings]757"
				},
				"sourceImgUrl": "https://share.weiyun.com/5ONKftH",
				"targetImgUrl": "https://share.weiyun.com/5ONKftH",
				"appKey": "tippytipper",
				"hasTestedCount": 4,
				"needTestedCount": 5,
				"finishedTime": null,
				"eventType": null,
				"eventHandlers": "",
				"value": " ACT[net.mandaria.tippytipper.activities.Settings]757 ====> ACT[net.mandaria.tippytipper.activities.Settings]757 .覆盖率 4/5"
			},
			{
				"id": 455539394,
				"source": {
					"id": 5,
					"activityName": "ACT[net.mandaria.tippytipper.activities.SplitBill]783",
					"imageUrl": "https://share.weiyun.com/5H0C4ET",
					"label": "ACT[net.mandaria.tippytipper.activities.SplitBill]783"
				},
				"target": {
					"id": 5,
					"activityName": "ACT[net.mandaria.tippytipper.activities.SplitBill]783",
					"imageUrl": "https://share.weiyun.com/5H0C4ET",
					"label": "ACT[net.mandaria.tippytipper.activities.SplitBill]783"
				},
				"sourceImgUrl": "https://share.weiyun.com/5H0C4ET",
				"targetImgUrl": "https://share.weiyun.com/5H0C4ET",
				"appKey": "tippytipper",
				"hasTestedCount": 4,
				"needTestedCount": 5,
				"finishedTime": null,
				"eventType": null,
				"eventHandlers": "<net.mandaria.tippytipper.activities.SplitBill$1: void onClick(android.view.View)>\n<net.mandaria.tippytipper.activities.SplitBill$2: void onClick(android.view.View)>",
				"value": " ACT[net.mandaria.tippytipper.activities.SplitBill]783 ====> ACT[net.mandaria.tippytipper.activities.SplitBill]783 .覆盖率 4/5"
			},
			{
				"id": 530750366,
				"source": {
					"id": 8,
					"activityName": "ACT[net.mandaria.tippytipper.activities.Total]796",
					"imageUrl": "https://share.weiyun.com/5EOwtVs",
					"label": "ACT[net.mandaria.tippytipper.activities.Total]796"
				},
				"target": {
					"id": 8,
					"activityName": "ACT[net.mandaria.tippytipper.activities.Total]796",
					"imageUrl": "https://share.weiyun.com/5EOwtVs",
					"label": "ACT[net.mandaria.tippytipper.activities.Total]796"
				},
				"sourceImgUrl": "https://share.weiyun.com/5EOwtVs",
				"targetImgUrl": "https://share.weiyun.com/5EOwtVs",
				"appKey": "tippytipper",
				"hasTestedCount": 4,
				"needTestedCount": 5,
				"finishedTime": null,
				"eventType": null,
				"eventHandlers": "<net.mandaria.tippytipper.activities.Total$7: void onClick(android.view.View)>\n<net.mandaria.tippytipper.activities.Total$6: void onClick(android.view.View)>\n<net.mandaria.tippytipper.activities.Total$5: void onClick(android.view.View)>",
				"value": " ACT[net.mandaria.tippytipper.activities.Total]796 ====> ACT[net.mandaria.tippytipper.activities.Total]796 .覆盖率 4/5"
			},
			{
				"id": 584883526,
				"source": {
					"id": 9,
					"activityName": "OptionsMenu[net.mandaria.tippytipper.activities.TippyTipper]762",
					"imageUrl": "https://share.weiyun.com/5EOwtVs",
					"label": "OptionsMenu[net.mandaria.tippytipper.activities.TippyTipper]762"
				},
				"target": {
					"id": 7,
					"activityName": "ACT[net.mandaria.tippytipper.activities.Settings]757",
					"imageUrl": "https://share.weiyun.com/5ONKftH",
					"label": "ACT[net.mandaria.tippytipper.activities.Settings]757"
				},
				"sourceImgUrl": "https://share.weiyun.com/5EOwtVs",
				"targetImgUrl": "https://share.weiyun.com/5ONKftH",
				"appKey": "tippytipper",
				"hasTestedCount": 4,
				"needTestedCount": 5,
				"finishedTime": null,
				"eventType": null,
				"eventHandlers": "\t<net.mandaria.tippytipper.activities.TippyTipper: boolean onOptionsItemSelected(android.view.MenuItem)>",
				"value": " OptionsMenu[net.mandaria.tippytipper.activities.TippyTipper]762 ====> ACT[net.mandaria.tippytipper.activities.Settings]757 .覆盖率 4/5"
			},
			{
				"id": 761136414,
				"source": {
					"id": 8,
					"activityName": "ACT[net.mandaria.tippytipper.activities.Total]796",
					"imageUrl": "https://share.weiyun.com/5EOwtVs",
					"label": "ACT[net.mandaria.tippytipper.activities.Total]796"
				},
				"target": {
					"id": 8,
					"activityName": "ACT[net.mandaria.tippytipper.activities.Total]796",
					"imageUrl": "https://share.weiyun.com/5EOwtVs",
					"label": "ACT[net.mandaria.tippytipper.activities.Total]796"
				},
				"sourceImgUrl": "https://share.weiyun.com/5EOwtVs",
				"targetImgUrl": "https://share.weiyun.com/5EOwtVs",
				"appKey": "tippytipper",
				"hasTestedCount": 4,
				"needTestedCount": 5,
				"finishedTime": null,
				"eventType": null,
				"eventHandlers": "",
				"value": " ACT[net.mandaria.tippytipper.activities.Total]796 ====> ACT[net.mandaria.tippytipper.activities.Total]796 .覆盖率 4/5"
			},
			{
				"id": 791275056,
				"source": {
					"id": 7,
					"activityName": "ACT[net.mandaria.tippytipper.activities.Settings]757",
					"imageUrl": "https://share.weiyun.com/5ONKftH",
					"label": "ACT[net.mandaria.tippytipper.activities.Settings]757"
				},
				"target": {
					"id": 7,
					"activityName": "ACT[net.mandaria.tippytipper.activities.Settings]757",
					"imageUrl": "https://share.weiyun.com/5ONKftH",
					"label": "ACT[net.mandaria.tippytipper.activities.Settings]757"
				},
				"sourceImgUrl": "https://share.weiyun.com/5ONKftH",
				"targetImgUrl": "https://share.weiyun.com/5ONKftH",
				"appKey": "tippytipper",
				"hasTestedCount": 4,
				"needTestedCount": 5,
				"finishedTime": null,
				"eventType": null,
				"eventHandlers": "",
				"value": " ACT[net.mandaria.tippytipper.activities.Settings]757 ====> ACT[net.mandaria.tippytipper.activities.Settings]757 .覆盖率 4/5"
			},
			{
				"id": 813768593,
				"source": {
					"id": 4,
					"activityName": "ACT[net.mandaria.tippytipper.activities.About]752",
					"imageUrl": "https://share.weiyun.com/5FdB1VO",
					"label": "ACT[net.mandaria.tippytipper.activities.About]752"
				},
				"target": {
					"id": 4,
					"activityName": "ACT[net.mandaria.tippytipper.activities.About]752",
					"imageUrl": "https://share.weiyun.com/5FdB1VO",
					"label": "ACT[net.mandaria.tippytipper.activities.About]752"
				},
				"sourceImgUrl": "https://share.weiyun.com/5FdB1VO",
				"targetImgUrl": "https://share.weiyun.com/5FdB1VO",
				"appKey": "tippytipper",
				"hasTestedCount": 4,
				"needTestedCount": 5,
				"finishedTime": null,
				"eventType": null,
				"eventHandlers": "",
				"value": " ACT[net.mandaria.tippytipper.activities.About]752 ====> ACT[net.mandaria.tippytipper.activities.About]752 .覆盖率 4/5"
			}
		],
		"totalElements": 42,
		"totalPages": 5,
		"last": false,
		"number": 0,
		"size": 10,
		"sort": null,
		"numberOfElements": 10,
		"first": true
	}
}
